%YAML 1.1
%TAG !u! tag:unity3d.com,2011:
--- !u!1 &124254
GameObject:
  m_ObjectHideFlags: 0
  m_PrefabParentObject: {fileID: 0}
  m_PrefabInternal: {fileID: 100100000}
  serializedVersion: 5
  m_Component:
  - component: {fileID: 424254}
  - component: {fileID: 11424254}
  m_Layer: 0
  m_Name: RankingManager
  m_TagString: Untagged
  m_Icon: {fileID: 0}
  m_NavMeshLayer: 0
  m_StaticEditorFlags: 0
  m_IsActive: 1
--- !u!4 &424254
Transform:
  m_ObjectHideFlags: 1
  m_PrefabParentObject: {fileID: 0}
  m_PrefabInternal: {fileID: 100100000}
  m_GameObject: {fileID: 124254}
  m_LocalRotation: {x: 0, y: 0, z: 0, w: 1}
  m_LocalPosition: {x: -0.16798116, y: -2.319522, z: 0}
  m_LocalScale: {x: 1, y: 1, z: 1}
  m_Children: []
  m_Father: {fileID: 0}
  m_RootOrder: 0
  m_LocalEulerAnglesHint: {x: 0, y: 0, z: 0}
--- !u!114 &11424254
MonoBehaviour:
  m_ObjectHideFlags: 1
  m_PrefabParentObject: {fileID: 0}
  m_PrefabInternal: {fileID: 100100000}
  m_GameObject: {fileID: 124254}
  m_Enabled: 1
  m_EditorHideFlags: 0
  m_Script: {fileID: 11500000, guid: 9df400b4c9297cd4698e02238917962a, type: 3}
  m_Name: 
  m_EditorClassIdentifier: 
  _databaseUrl: https://rotating-road.firebaseio.com/
  _rankingChildItem: Ranking
  _content: {fileID: 0}
  _createNameCanvas: {fileID: 0}
  rankingCount: 99
  RankingCanvas: {fileID: 0}
  _closeButton: {fileID: 0}
  _showRankingButton: {fileID: 0}
  _inputfield: {fileID: 0}
  _myrankText: {fileID: 0}
  textures:
  - {fileID: 2800000, guid: 480ea9257b8184f1683c9419dfbd97ce, type: 3}
  - {fileID: 2800000, guid: 0975443d7d979471da08f865837a8567, type: 3}
  - {fileID: 2800000, guid: acfa65cae585944ee99f8010e2c1d85a, type: 3}
  - {fileID: 2800000, guid: b6a8208cd6af8408caf7353c4c2d2eda, type: 3}
  - {fileID: 2800000, guid: b49932e03a9574087806b2a6340da548, type: 3}
  - {fileID: 2800000, guid: 02e754ca9bb9f490891f01bd95f94a71, type: 3}
  - {fileID: 2800000, guid: f8e5528856d664b02abacd1769dffdc2, type: 3}
  - {fileID: 2800000, guid: 831fa9330588448dcad41a101beb6a81, type: 3}
  - {fileID: 2800000, guid: 52b27698dba6742b3b6c773d39e3ec6c, type: 3}
  - {fileID: 2800000, guid: f96a4b251bab4404d909c7cdb906f872, type: 3}
  - {fileID: 2800000, guid: b1e05ea409cfc4a0b87c8f9520ec2312, type: 3}
  - {fileID: 2800000, guid: 2a63f20e266d34cab83cefa5f24226d2, type: 3}
  - {fileID: 2800000, guid: ac60eeac22ffa4e5090c56be161fa311, type: 3}
  - {fileID: 2800000, guid: 8ec101344d0204e76a1a1ffebc98d43a, type: 3}
  - {fileID: 2800000, guid: 5855b8fab6dac4db787a1a5534cd8816, type: 3}
  - {fileID: 2800000, guid: 20f33668923f1415a966d16581c2d606, type: 3}
  - {fileID: 2800000, guid: e59180108b05f40c799b933091ae8463, type: 3}
  - {fileID: 2800000, guid: 140ea911fe73e4561a3206db24e6a0d9, type: 3}
  - {fileID: 2800000, guid: 701076a034bc54f49a4058f4948e0a77, type: 3}
  - {fileID: 2800000, guid: da3d36700eac04dfdbe80c92a9631f74, type: 3}
  - {fileID: 2800000, guid: e6de8b3c8eda04783b798a3b2e1db42f, type: 3}
--- !u!1001 &100100000
Prefab:
  m_ObjectHideFlags: 1
  serializedVersion: 2
  m_Modification:
    m_TransformParent: {fileID: 0}
    m_Modifications: []
    m_RemovedComponents: []
  m_ParentPrefab: {fileID: 0}
  m_RootGameObject: {fileID: 124254}
  m_IsPrefabParent: 1
